Tidy manipulation of fourier transformed data • tidyfft
…
Maintenance and Contributions

I intend to keep this package current and availabe on CRAN. If you would like to contribute of code or maintenance, please create an issue on github.

Example

Using tidy_fft with ggplot.

tidy_fft(sunspot.month, norm = TRUE) |>
  to_rect(.keep = "all") |>
  to_polr(.keep = "all") |>
  print(n = 5) ->
  ssm.fft
#> # A tibble: 3,177 × 6
#>    .dim_1 fx              re     im   mod    arg
#>     <dbl> <cpl>        <dbl>  <dbl> <dbl>  <dbl>
#> 1 0       51.96+0.00i 52.0    0     52.0   0    
#> 2 0.00378  4.37+4.99i  4.37   4.99   6.63  0.852
#> 3 0.00755 -0.86+5.08i -0.860  5.08   5.15  1.74 
#> 4 0.0113  -2.65-5.70i -2.65  -5.70   6.29 -2.01 
#> 5 0.0151  -4.64-0.59i -4.64  -0.586  4.68 -3.02 
#> # ℹ 3,172 more rows
…
