…
## Example

Using tidy_fft with ggplot.

``` r
library(tidyfft)
(
    tidy_fft(sunspot.month) |>
    to_rect(.keep = "all") |>
    to_polr(.keep = "all") -> sunspot.month.fft
)
#> # A tibble: 3,177 × 6
#>      dim_1 fx                        re     im   mod    arg
#>      <dbl> <cpl>                  <dbl>  <dbl> <dbl>  <dbl>
#>  1 0       51.9648096+0.0000000i 52.0    0     52.0   0    
#>  2 0.00378  4.3677486+4.9891293i  4.37   4.99   6.63  0.852
#>  3 0.00755 -0.8604724+5.0776840i -0.860  5.08   5.15  1.74 
#>  4 0.0113  -2.6529002-5.7005834i -2.65  -5.70   6.29 -2.01 
#>  5 0.0151  -4.6443629-0.5857344i -4.64  -0.586  4.68 -3.02 
#>  6 0.0189  -2.5139488+4.0732903i -2.51   4.07   4.79  2.12 
#>  7 0.0227  -0.6841122+2.2562569i -0.684  2.26   2.36  1.87 
#>  8 0.0264  -1.0687841-2.2207510i -1.07  -2.22   2.46 -2.02 
#>  9 0.0302   0.1802752-1.3627241i  0.180 -1.36   1.37 -1.44 
#> 10 0.0340   2.4588360-1.1049305i  2.46  -1.10   2.70 -0.422
#> # ℹ 3,167 more rows
```
…
