Compute Fourier frequencies for multidimensional arrays — fourier_frequencies.array • tidyfft
…
    A tibble where each column corresponds to the Fourier frequencies
of a dimension of the input array. The column names are dim_1,
dim_2, ..., corresponding to each dimension.

    See also

    fourier_frequencies.default(), tidyr::expand_grid()

    Examples

# Compute Fourier frequencies for a 3D array
array_input <- array(1:27, dim = c(3, 3, 3))
fourier_frequencies(array_input)
#> # A tibble: 27 × 3
#>    dim_3  dim_2  dim_1
#>    <dbl>  <dbl>  <dbl>
#>  1 0      0      0    
#>  2 0      0      0.333
#>  3 0      0     -0.333
#>  4 0      0.333  0    
#>  5 0      0.333  0.333
#>  6 0      0.333 -0.333
#>  7 0     -0.333  0    
#>  8 0     -0.333  0.333
#>  9 0     -0.333 -0.333
#> 10 0.333  0      0    
#> # ℹ 17 more rows
…
