fftab • fftab
…
The fx column contains the associated fourier
coefficients in complex form. Because it is often easier to manipulate
real numbers, functions are provided to change the representation
between complex (cplx), rectangular (rect),
and polar (polr).

v_fft |> to_rect() |> print(n = 3)
#> # A tibble: 8 × 3
#>   .dim_1     re     im
#>    <dbl>  <dbl>  <dbl>
#> 1  0     -2.38   0    
#> 2  0.125 -0.526 -0.225
#> 3  0.25  -1.29  -3.68 
#> # ℹ 5 more rows

v_fft |> to_polr() |> print(n = 3)
#> # A tibble: 8 × 3
#>   .dim_1   mod   arg
#>    <dbl> <dbl> <dbl>
#> 1  0     2.38   3.14
#> 2  0.125 0.572 -2.74
#> 3  0.25  3.89  -1.91
#> # ℹ 5 more rows

v_fft |> set_repr(c("polr", "rect", "cplx")) |> print(n = 3)
#> # A tibble: 8 × 6
#>   .dim_1   mod   arg     re        im fx              
#>    <dbl> <dbl> <dbl>  <dbl>     <dbl> <cpl>           
#> 1  0     2.38   3.14 -2.38   2.91e-16 -2.377+2.91e-16i
#> 2  0.125 0.572 -2.74 -0.526 -2.25e- 1 -0.526-2.25e-01i
#> 3  0.25  3.89  -1.91 -1.29  -3.68e+ 0 -1.288-3.68e+00i
#> # ℹ 5 more rows
…
Time series input

Time series in R have implicit units defined by their beginning and
ending times. In addition, time series carry a frequency attribute which
describes the number of samples per time unit. For example, the
sunspot.month data starts in 1749 and ends in 2014
(implicit units of years) and has a sampling frequency of 12, meaning
monthly counts. When computing fourier frequencies, fftab
uses this information to output frequencies in cycles per implicit time
units.

sunspot.month |> fftab() |> print(n = 5)
#> # A tibble: 3,177 × 2
#>    .dim_1 fx           
#> *   <dbl> <cpl>        
#> 1 0       165092+    0i
#> 2 0.00378  13876+15850i
#> 3 0.00755  -2734+16132i
#> 4 0.0113   -8428-18111i
#> 5 0.0151  -14755- 1861i
#> # ℹ 3,172 more rows
…
